4098,Jessie Stake,276 Jones St,Jacobstown,VA,18067,visa,4716-8744-9304-9410,07/22,378
5067,James Hark,266 Street Rd,Bensalem,PA,19066,mastercard,2720-4241-2040-3321,09/21,153
6657,Juliet Barnes,435 Frail Rd,Sportstown,WA,17089,americanexpress,3430-116381-24720,08/21,733
6656,Jacob Hess,246 Park Ave,Orlando,FL,14326,discovercard,6011-1939-4477-4873,09/20,815
4312,Hailey Stark,346 Rogers Rd,Harristown,SC,44587,visa,4929-9060-2780-0620,02/21,525
0978,Salem Jacobs,122 Emily Rd,Wesley,VA,60987,mastercard,2221-8493-5420-0700,08/20,161
7984,Elliot Oliver,467 Dixon Ave,Manhattan,NY,20189,americanexpress,3781-178829-34686,02/22,609
6698,Harry Jacobson,444 Blueberry Rd,Fruits,WI,90867,discovercard,6011-4550-9373-0729,12/22,380
8977,Margaret Harrison,554 Stella Ave,Jenkins,WI,90867,visa,4716-0954-3155-1966,08/22,431
3216,Jeremy Carter,677 Straw St,Hickory,MI,18906,mastercard,2337-9190-1929-1401,01/23,548